<svg width="18" height="11" viewBox="0 0 18 11" fill="none" xmlns="http://www.w3.org/2000/svg">
<path d="M15.9738 11L17.8096 11C17.9687 11 18.0566 10.8221 17.9592 10.7019L9.59722 0.284276C9.52648 0.195764 9.4359 0.124143 9.33239 0.0748763C9.22888 0.0256099 9.11517 -3.88366e-07 8.99994 -3.93402e-07C8.88471 -3.98439e-07 8.771 0.0256099 8.66749 0.0748763C8.56398 0.124143 8.4734 0.195763 8.40266 0.284276L0.0406966 10.7019C-0.0566735 10.8244 0.0311961 11 0.190313 11L2.0261 11C2.14247 11 2.25409 10.9468 2.32533 10.859L8.99875 2.53973L15.6745 10.859C15.7458 10.9468 15.8574 11 15.9738 11Z" fill="#627384"/>
</svg>
