<svg width="12" height="18" viewBox="0 0 12 18" fill="none" xmlns="http://www.w3.org/2000/svg">
<path d="M10.9459 8.40937L0.380348 0.157031C0.35274 0.135296 0.31956 0.121788 0.284621 0.118059C0.249682 0.114331 0.2144 0.120532 0.182826 0.135952C0.151253 0.151371 0.124669 0.175384 0.106127 0.205231C0.0875857 0.235078 0.0778384 0.26955 0.078005 0.304687V2.11641C0.078005 2.23125 0.131911 2.34141 0.220974 2.41172L8.65845 9L0.220974 15.5883C0.129568 15.6586 0.078005 15.7688 0.078005 15.8836V17.6953C0.078005 17.8523 0.258473 17.9391 0.380348 17.843L10.9459 9.59063C11.0357 9.52058 11.1084 9.43097 11.1584 9.32863C11.2083 9.22628 11.2343 9.11389 11.2343 9C11.2343 8.88611 11.2083 8.77372 11.1584 8.67137C11.1084 8.56903 11.0357 8.47942 10.9459 8.40937Z" fill="#627384"/>
</svg>
