<svg width="228" height="228" viewBox="0 0 228 228" fill="none" xmlns="http://www.w3.org/2000/svg">
<path d="M159.269 8.32117C159.269 8.08342 159.269 7.84567 159.506 7.60793L167.114 0V18.0688C167.114 18.3066 167.114 18.5443 166.877 18.5443C166.639 18.5443 166.401 18.5443 166.401 18.5443C164.975 17.3556 163.548 15.6913 162.122 13.7894C160.695 12.1251 159.982 10.4609 159.269 8.32117ZM142.389 24.9635H142.151L134.543 32.5714V32.8092C134.543 37.0886 135.018 41.6058 135.969 45.8853C136.683 48.976 137.396 52.0667 138.585 54.682C138.585 54.9197 138.822 54.9197 138.822 54.9197C138.822 54.9197 139.06 54.9197 139.06 54.682C141.2 49.927 141.913 44.9343 142.626 39.2284C143.102 35.6622 143.102 30.9072 142.626 25.2013C142.626 24.9635 142.389 24.9635 142.389 24.9635ZM96.9787 94.1481C98.1674 99.6163 98.8807 104.609 99.1184 109.364C99.1184 109.602 99.1184 109.602 98.8807 109.602H98.6429C96.9787 109.126 93.4125 107.7 87.7065 102.469C87.231 101.994 86.9933 101.756 86.5178 101.281C86.2801 101.043 86.0423 100.33 86.0423 100.092C86.9933 95.5746 87.4688 91.2951 87.4688 87.2534C87.4688 84.8759 87.231 82.4984 86.9933 79.8832C86.9933 79.6455 86.9933 79.6455 86.9933 79.6455L91.2728 75.366H91.5105C91.5105 75.366 91.7482 75.366 91.7482 75.6038C93.888 80.8342 95.5522 87.0156 96.9787 94.1481ZM167.114 21.635V24.0125C165.212 30.6695 162.597 35.8999 159.744 39.4661C156.416 43.2701 153.325 45.4098 151.423 46.3608C151.185 46.3608 151.185 46.3608 150.947 46.3608L150.71 46.123C152.374 35.6621 153.087 24.7258 153.087 14.0271V13.7894L157.129 9.74765H157.367C157.367 9.74765 157.604 9.74765 157.604 9.9854C158.318 11.6496 159.031 13.0761 159.982 14.5026C162.122 17.5933 164.499 19.7331 166.877 21.3973C166.877 21.3973 167.114 21.635 167.114 21.635ZM68.2112 112.692C70.5887 117.447 70.1132 121.489 69.6377 123.391C69.6377 123.629 69.4 123.867 69.1622 123.867C68.9245 124.104 68.6867 124.104 68.449 123.867C65.8337 123.153 62.9808 122.202 59.8901 120.776L52.7576 113.643L61.5543 104.847C61.792 104.609 62.0298 104.609 62.2675 104.609C62.5053 104.609 62.743 104.609 62.9808 104.847C65.1205 107.462 67.0225 110.077 68.2112 112.692ZM87.231 125.769C87.4688 126.006 87.231 126.244 87.231 126.244C87.231 126.244 86.9933 126.482 86.7555 126.482C84.8536 126.72 81.2874 126.482 73.9172 125.293C73.2039 125.293 72.4907 125.055 71.7774 124.818C71.5397 124.818 71.5397 124.818 71.5397 124.58V124.342C72.2529 121.965 72.7284 117.447 69.8755 111.504C68.449 108.413 66.3092 105.798 63.9318 103.42L63.694 103.182C63.694 102.945 63.694 102.945 63.9318 102.945L71.3019 95.5746L71.5397 95.3368C71.7774 95.3368 71.7774 95.5746 71.7774 95.5746C75.8192 106.511 81.0496 116.972 87.231 125.769Z" fill="url(#paint0_linear)"/>
<path d="M21.375 22.348V205.889H135.018L116.474 187.583H39.6816V40.4168H116.474L135.018 22.1102H21.375V22.348ZM174.009 22.348V40.4168H186.847V187.583H174.009V205.889H204.916V22.348H174.009Z" fill="url(#paint1_linear)"/>
<path d="M127.173 188.058C135.256 189.485 142.864 188.772 146.668 188.296C146.906 188.296 147.144 188.058 147.381 187.821C147.619 187.583 147.619 187.345 147.381 187.107C145.479 180.688 142.864 174.507 139.773 168.325C138.347 165.71 137.158 163.333 135.969 160.717C135.732 160.48 135.732 160.242 135.256 160.242C132.403 159.529 126.697 157.864 119.565 154.061C119.327 153.823 118.852 153.823 118.614 154.061C117.187 154.774 114.097 155.725 109.104 155.725C105.775 155.725 101.972 155.249 97.6921 154.536C96.7411 154.298 95.7901 154.061 94.8391 153.823H94.6013C94.3636 153.823 94.1258 154.061 93.8881 154.298C93.6504 154.536 93.6504 155.012 94.1258 155.249L126.697 187.821C126.935 187.821 126.935 188.058 127.173 188.058Z" fill="url(#paint2_linear)"/>
<path d="M101.496 106.749C101.258 106.749 101.258 106.987 101.258 106.987C101.971 114.119 101.971 120.776 100.783 126.244V126.482L101.02 126.72C103.398 126.957 106.726 126.482 109.817 124.104C112.432 121.965 114.572 119.825 116.236 117.21C116.712 116.734 116.712 116.021 116.474 115.308C114.572 108.889 113.383 102.707 112.67 95.5747C112.67 95.5747 112.67 95.337 112.432 95.337C111.957 95.0992 111.244 94.6237 110.768 94.386H110.53C110.53 94.386 110.53 94.386 110.293 94.386C110.293 94.386 110.055 94.386 110.055 94.6237C109.817 95.5747 109.579 96.5257 109.104 97.239C107.44 102.945 103.636 105.56 101.496 106.749Z" fill="url(#paint3_linear)"/>
<path d="M163.31 74.4149C164.499 73.2262 165.688 72.0374 166.877 70.611V70.3732V53.7309C166.877 53.4931 166.639 53.4931 166.639 53.2554C166.639 53.2554 166.401 53.2554 166.163 53.2554C162.359 56.8216 159.744 60.3878 157.842 63.7163C154.514 69.8977 153.325 77.0301 152.849 80.8341C152.849 81.0718 152.849 81.0719 153.087 81.3096C153.325 81.3096 153.325 81.3096 153.563 81.3096C157.129 79.4076 160.457 77.0301 163.31 74.4149Z" fill="url(#paint4_linear)"/>
<path d="M154.989 161.431C155.227 161.668 155.227 161.668 155.465 161.668C155.702 161.668 155.702 161.431 155.94 161.193C156.178 160.004 156.653 158.578 156.891 157.151C157.604 152.872 158.08 148.117 158.555 142.411C158.555 141.935 158.318 141.222 158.08 140.984L141.2 124.104C140.962 123.866 140.962 123.866 140.724 123.866H140.487C140.487 123.866 140.249 124.104 140.249 124.342C140.249 128.621 140.487 132.901 141.2 136.943C142.864 148.117 151.423 157.627 154.989 161.431Z" fill="url(#paint5_linear)"/>
<path d="M159.744 220.63L167.114 228V150.256C167.114 150.019 167.114 150.019 166.877 149.781L161.646 144.551C161.646 144.551 161.646 144.551 161.408 144.551C161.408 144.551 161.171 144.551 161.171 144.788C160.933 149.543 160.457 154.06 159.744 157.627C157.367 170.703 153.087 176.409 150.71 178.548V178.786C155.465 191.862 158.08 205.414 158.793 219.441C159.031 219.917 159.269 220.392 159.744 220.63Z" fill="url(#paint6_linear)"/>
<path d="M115.761 75.6037C115.998 75.8414 116.236 75.8414 116.474 75.8414C119.327 74.8905 124.795 72.7507 129.075 68.4713C132.403 65.1428 135.018 61.8143 136.92 58.4859C137.158 58.2481 137.158 58.0104 136.92 57.7726C136.683 57.5349 136.683 57.0594 136.445 56.5839C136.207 56.3461 135.969 56.1084 135.494 56.1084C133.592 56.1084 130.739 55.8706 127.41 52.7799C125.508 50.8779 123.844 48.5005 122.893 45.6475C122.893 45.4097 122.655 45.172 122.18 45.172H121.942C121.704 45.172 121.467 45.172 121.229 45.4097L118.851 48.025C118.614 48.2627 118.614 48.2627 118.614 48.5005C116.474 58.2481 115.523 67.0448 115.285 74.8905C115.523 75.366 115.523 75.6037 115.761 75.6037Z" fill="url(#paint7_linear)"/>
<path d="M167.114 77.9815V75.1285C167.114 74.8907 166.877 74.8907 166.877 74.8907C166.877 74.8907 166.877 74.8907 166.639 74.8907H166.401C165.926 75.3662 165.45 75.8417 164.737 76.3172C152.849 87.2536 138.822 89.1556 134.543 89.6311C134.543 89.6311 134.305 89.6311 134.305 89.8688C132.165 92.9596 129.788 96.0503 127.173 98.9033V99.141C127.173 99.141 127.173 99.3788 127.41 99.3788C129.788 100.805 134.305 103.658 139.773 104.847H140.011L166.639 78.2192C166.877 78.2192 167.114 77.9815 167.114 77.9815Z" fill="url(#paint8_linear)"/>
<path d="M98.643 134.565C99.1185 135.041 99.8317 135.754 100.307 136.229C113.621 149.068 126.222 153.109 132.641 154.536C132.879 154.536 132.879 154.536 132.879 154.536C132.879 154.536 133.116 154.298 132.879 154.298C125.508 139.558 121.229 129.335 118.376 120.063C118.376 119.825 118.138 119.587 117.901 119.587C117.663 119.587 117.425 119.587 117.425 119.825C115.999 122.202 114.097 124.104 111.957 126.006C108.866 128.621 105.538 130.048 102.685 130.048C101.971 130.048 101.258 130.048 100.783 130.048C100.545 130.048 100.545 130.048 100.545 130.286C99.8317 132.425 99.3562 133.852 98.8807 134.803C98.4052 134.327 98.4052 134.565 98.643 134.565Z" fill="url(#paint9_linear)"/>
<path d="M148.094 192.576C145.241 192.813 141.675 193.051 136.92 193.051C135.494 193.051 133.83 193.051 132.165 192.813H131.928V193.051L151.185 212.309C151.423 212.546 151.661 212.546 151.661 212.309C151.661 212.309 151.898 212.071 151.898 211.833C151.423 205.652 150.472 199.233 149.045 193.289C149.283 193.051 148.57 192.576 148.094 192.576Z" fill="url(#paint10_linear)"/>
<path d="M142.864 67.2825C142.864 67.0448 142.864 66.5693 142.626 66.3315C141.913 65.6183 140.962 64.1918 139.773 62.2898C139.535 62.0521 139.298 61.8143 139.06 61.8143C138.822 61.8143 138.584 62.0521 138.347 62.2898C136.445 65.3805 134.305 67.9958 131.69 70.611C126.459 75.8414 120.04 78.4567 116.474 79.6454C115.998 79.6454 115.523 80.5964 115.523 80.8341C115.998 89.1553 116.712 95.8123 117.9 101.994C117.9 102.231 118.138 102.469 118.376 102.707C118.614 102.707 119.089 102.707 119.327 102.469C125.746 96.2877 137.158 83.2116 142.864 67.2825Z" fill="url(#paint11_linear)"/>
<path d="M86.0424 104.609C85.8046 104.371 85.3291 104.133 85.0914 103.658C83.9026 107.462 82.9516 110.553 82.2384 111.979C82.2384 112.217 82.2384 112.217 82.2384 112.455C86.0424 119.349 90.3218 125.768 95.0768 130.999C95.3145 131.237 95.3145 131.237 95.5523 131.237C95.79 131.237 96.0278 130.999 96.0278 130.999C97.4543 127.67 99.1185 121.964 98.8807 112.93C97.692 112.692 93.888 111.504 86.0424 104.609Z" fill="url(#paint12_linear)"/>
<path d="M88.8955 149.781C91.7485 150.732 94.8392 151.445 97.4544 151.921C106.727 153.585 111.957 153.109 114.81 152.396C115.048 152.396 115.285 152.158 115.285 151.921C115.285 151.921 115.285 151.445 115.048 151.445C108.866 147.879 103.16 143.362 98.1676 138.369C95.3147 135.516 92.4617 132.425 89.8465 128.859C89.6087 128.621 89.371 128.621 89.1332 128.621C88.42 128.859 87.2313 128.859 86.0425 128.859C82.7141 128.859 79.3856 128.621 74.1551 127.433C71.7777 126.957 68.9247 126.006 65.834 124.817C65.834 124.817 65.834 124.817 65.5962 124.817C65.3585 124.817 65.3585 124.817 65.3585 125.055C65.3585 125.055 65.1207 125.293 65.3585 125.531L89.1332 149.305C88.6577 149.781 88.8955 149.781 88.8955 149.781Z" fill="url(#paint13_linear)"/>
<path d="M97.6921 70.6111C98.6431 74.4151 100.545 77.9813 102.923 81.5475C106.013 86.3024 109.342 88.9177 111.481 90.5819C111.719 90.8196 111.957 90.8196 112.195 90.5819C112.432 90.3441 112.432 90.3441 112.432 89.8686C112.195 86.7779 111.957 83.6872 111.719 80.121C111.481 72.5131 111.957 63.9542 113.621 54.9197C113.621 54.682 113.383 54.4442 113.383 54.2065C113.146 54.2065 112.908 53.9687 112.67 54.2065L98.1676 68.9469C97.6921 69.4223 97.4543 69.8978 97.6921 70.6111Z" fill="url(#paint14_linear)"/>
<path d="M93.6505 73.7016C95.7902 79.4075 97.4544 86.3022 99.3564 94.3856C100.07 97.4764 100.545 100.567 101.021 103.42C101.021 103.658 101.258 103.896 101.496 103.896C101.734 103.896 101.972 103.896 102.209 103.896C103.874 102.707 106.251 100.329 107.915 96.2876C108.391 95.3366 108.629 94.1479 108.866 92.9592C108.866 92.7214 108.866 92.4837 108.629 92.2459C105.538 89.8684 102.923 86.7777 100.545 83.2115C98.4054 80.1208 96.7412 76.5546 95.5524 73.2261C95.5524 72.9884 95.3147 72.7506 95.0769 72.7506C95.0769 72.7506 95.0769 72.7506 94.8392 72.7506C94.6014 72.7506 94.6014 72.7506 94.3637 72.9884C93.6505 73.2261 93.6505 73.4639 93.6505 73.7016Z" fill="url(#paint15_linear)"/>
<path d="M80.3364 108.65C80.3364 108.888 80.5742 108.888 80.5742 108.888C80.5742 108.888 80.8119 108.888 80.8119 108.65C81.7629 106.511 82.4761 104.133 83.1894 101.756V101.518C80.8119 98.6651 78.4344 95.3366 76.2947 91.2949L76.0569 91.0571H75.8192L74.155 92.7214V92.9591C75.8192 98.4273 77.9589 103.658 80.3364 108.65Z" fill="url(#paint16_linear)"/>
<path d="M145.004 39.4662C144.29 45.4099 143.339 51.8291 140.249 58.2483V58.486C141.438 60.8635 142.626 62.29 143.577 63.241H143.815C143.815 63.241 144.053 63.241 144.053 63.0032C144.29 62.5277 144.29 62.0522 144.29 61.5767C148.808 43.5079 150.234 27.3411 150.472 16.6424C150.472 16.4047 150.472 16.4047 150.234 16.4047H149.996L144.528 21.8729V22.1106C145.241 29.7185 145.241 35.4245 145.004 39.4662Z" fill="url(#paint17_linear)"/>
<path d="M166.876 32.0957C166.876 31.8579 166.876 32.0957 166.876 32.0957C165.212 35.8996 163.31 38.9903 161.408 41.1301C156.653 46.836 151.898 49.689 149.996 50.64L149.759 50.8777C149.045 54.9194 148.094 58.9611 147.143 62.7651C145.241 70.373 141.913 78.2187 136.92 85.8266C136.92 86.0644 136.92 86.0644 136.92 86.3021L137.158 86.5399C141.437 86.0644 145.717 84.8756 149.759 83.2114L149.996 82.9737C150.234 80.3584 151.185 71.0863 155.702 63.0029C158.555 57.7724 163.073 53.0175 166.639 49.9267V49.689L166.876 32.0957C167.114 32.0957 167.114 32.0957 166.876 32.0957Z" fill="url(#paint18_linear)"/>
<path d="M135.256 53.9686C135.494 53.9686 135.494 53.9686 135.494 53.7309V53.4931C134.781 51.1157 134.067 48.7382 133.592 46.3607C132.879 42.7945 132.403 39.2283 132.165 35.6621C132.165 35.4243 131.928 35.4243 131.928 35.4243C131.928 35.4243 131.928 35.4243 131.69 35.4243H131.452L124.082 42.7945C124.082 42.7945 123.844 43.0322 124.082 43.0322C125.271 46.8362 126.935 49.6892 129.075 51.5912C131.69 53.7309 133.83 53.9686 135.256 53.9686Z" fill="url(#paint19_linear)"/>
<path d="M137.158 106.749C132.403 105.322 128.361 103.182 125.984 101.756C125.746 101.756 125.746 101.518 125.508 101.518C125.271 101.518 125.033 101.518 124.795 101.756C122.655 104.133 120.991 105.798 119.802 106.749C119.327 106.986 119.327 107.7 119.327 108.175C122.893 121.489 129.075 133.614 140.486 155.962L143.577 161.906C145.479 165.472 147.143 169.276 148.57 172.842C148.57 173.08 148.808 173.318 149.045 173.318C149.283 173.318 149.521 173.318 149.521 173.08C151.423 171.178 152.849 168.563 154.276 165.472C154.514 164.997 154.276 164.521 154.038 164.046C150.947 160.955 140.962 149.781 138.584 136.943C137.396 130.286 137.396 124.342 137.633 120.776V120.538L130.977 113.881V113.406L131.214 113.168L137.396 106.986C137.633 106.749 137.633 106.749 137.633 106.511C137.633 106.986 137.396 106.749 137.158 106.749Z" fill="url(#paint20_linear)"/>
<path d="M83.9027 98.665C83.9027 98.9028 83.9027 98.9028 83.9027 98.665C83.9027 98.665 84.1405 98.665 83.9027 98.665C85.0915 94.8611 85.3292 91.0571 85.3292 87.2532C85.3292 85.5889 85.3292 83.9247 85.0915 82.2604C85.0915 82.0227 85.0915 82.0227 84.8537 82.0227H84.616L77.7213 88.9174C77.4835 89.1551 77.4835 89.1551 77.7213 89.3929C79.861 93.1968 81.763 96.2876 83.9027 98.665Z" fill="url(#paint21_linear)"/>
<defs>
<linearGradient id="paint0_linear" x1="144.861" y1="91.8992" x2="104.401" y2="51.4396" gradientUnits="userSpaceOnUse">
<stop stop-color="#F8A50B"/>
<stop offset="0.1905" stop-color="#F8A50B"/>
<stop offset="0.873" stop-color="#FFE404"/>
<stop offset="1" stop-color="#FFE404"/>
</linearGradient>
<linearGradient id="paint1_linear" x1="175.857" y1="221.865" x2="46.4726" y2="-0.620825" gradientUnits="userSpaceOnUse">
<stop stop-color="#30C000"/>
<stop offset="0.1376" stop-color="#30C000"/>
<stop offset="1" stop-color="#B5E910"/>
</linearGradient>
<linearGradient id="paint2_linear" x1="93.7407" y1="171.549" x2="167.414" y2="171.549" gradientUnits="userSpaceOnUse">
<stop stop-color="#78CE00"/>
<stop offset="0.7725" stop-color="#229305"/>
<stop offset="1" stop-color="#229305"/>
</linearGradient>
<linearGradient id="paint3_linear" x1="93.7406" y1="110.408" x2="167.414" y2="110.408" gradientUnits="userSpaceOnUse">
<stop stop-color="#78CE00"/>
<stop offset="0.7725" stop-color="#229305"/>
<stop offset="1" stop-color="#229305"/>
</linearGradient>
<linearGradient id="paint4_linear" x1="93.7406" y1="67.2789" x2="167.414" y2="67.2789" gradientUnits="userSpaceOnUse">
<stop stop-color="#78CE00"/>
<stop offset="0.7725" stop-color="#229305"/>
<stop offset="1" stop-color="#229305"/>
</linearGradient>
<linearGradient id="paint5_linear" x1="93.7406" y1="142.683" x2="167.414" y2="142.683" gradientUnits="userSpaceOnUse">
<stop stop-color="#78CE00"/>
<stop offset="0.7725" stop-color="#229305"/>
<stop offset="1" stop-color="#229305"/>
</linearGradient>
<linearGradient id="paint6_linear" x1="93.7408" y1="186.303" x2="167.414" y2="186.303" gradientUnits="userSpaceOnUse">
<stop stop-color="#78CE00"/>
<stop offset="0.7725" stop-color="#229305"/>
<stop offset="1" stop-color="#229305"/>
</linearGradient>
<linearGradient id="paint7_linear" x1="98.0609" y1="60.4347" x2="167.414" y2="60.4347" gradientUnits="userSpaceOnUse">
<stop stop-color="#55E2D2"/>
<stop offset="0.1376" stop-color="#55E2D2"/>
<stop offset="0.8942" stop-color="#2293D2"/>
<stop offset="1" stop-color="#2293D2"/>
</linearGradient>
<linearGradient id="paint8_linear" x1="98.0609" y1="89.8199" x2="167.414" y2="89.8199" gradientUnits="userSpaceOnUse">
<stop stop-color="#55E2D2"/>
<stop offset="0.1376" stop-color="#55E2D2"/>
<stop offset="0.8942" stop-color="#2293D2"/>
<stop offset="1" stop-color="#2293D2"/>
</linearGradient>
<linearGradient id="paint9_linear" x1="98.061" y1="136.879" x2="167.414" y2="136.879" gradientUnits="userSpaceOnUse">
<stop stop-color="#55E2D2"/>
<stop offset="0.1376" stop-color="#55E2D2"/>
<stop offset="0.8942" stop-color="#2293D2"/>
<stop offset="1" stop-color="#2293D2"/>
</linearGradient>
<linearGradient id="paint10_linear" x1="98.0609" y1="202.623" x2="167.414" y2="202.623" gradientUnits="userSpaceOnUse">
<stop stop-color="#55E2D2"/>
<stop offset="0.1376" stop-color="#55E2D2"/>
<stop offset="0.8942" stop-color="#2293D2"/>
<stop offset="1" stop-color="#2293D2"/>
</linearGradient>
<linearGradient id="paint11_linear" x1="166.3" y1="17.1392" x2="84.5554" y2="146.138" gradientUnits="userSpaceOnUse">
<stop stop-color="#30C000"/>
<stop offset="0.2328" stop-color="#30C000"/>
<stop offset="1" stop-color="#229305"/>
</linearGradient>
<linearGradient id="paint12_linear" x1="157.732" y1="11.7091" x2="75.9865" y2="140.708" gradientUnits="userSpaceOnUse">
<stop stop-color="#30C000"/>
<stop offset="0.2328" stop-color="#30C000"/>
<stop offset="1" stop-color="#229305"/>
</linearGradient>
<linearGradient id="paint13_linear" x1="166.852" y1="17.4886" x2="85.107" y2="146.488" gradientUnits="userSpaceOnUse">
<stop stop-color="#30C000"/>
<stop offset="0.2328" stop-color="#30C000"/>
<stop offset="1" stop-color="#229305"/>
</linearGradient>
<linearGradient id="paint14_linear" x1="150.93" y1="7.39921" x2="69.185" y2="136.398" gradientUnits="userSpaceOnUse">
<stop stop-color="#30C000"/>
<stop offset="0.2328" stop-color="#30C000"/>
<stop offset="1" stop-color="#229305"/>
</linearGradient>
<linearGradient id="paint15_linear" x1="150.231" y1="6.95584" x2="68.4856" y2="135.955" gradientUnits="userSpaceOnUse">
<stop stop-color="#30C000"/>
<stop offset="0.2328" stop-color="#30C000"/>
<stop offset="1" stop-color="#229305"/>
</linearGradient>
<linearGradient id="paint16_linear" x1="140.76" y1="0.9548" x2="59.0154" y2="129.954" gradientUnits="userSpaceOnUse">
<stop stop-color="#30C000"/>
<stop offset="0.2328" stop-color="#30C000"/>
<stop offset="1" stop-color="#229305"/>
</linearGradient>
<linearGradient id="paint17_linear" x1="162.207" y1="14.5452" x2="80.4616" y2="143.544" gradientUnits="userSpaceOnUse">
<stop stop-color="#30C000"/>
<stop offset="0.2328" stop-color="#30C000"/>
<stop offset="1" stop-color="#229305"/>
</linearGradient>
<linearGradient id="paint18_linear" x1="177.249" y1="24.0774" x2="95.5042" y2="153.076" gradientUnits="userSpaceOnUse">
<stop stop-color="#30C000"/>
<stop offset="0.2328" stop-color="#30C000"/>
<stop offset="1" stop-color="#229305"/>
</linearGradient>
<linearGradient id="paint19_linear" x1="154.383" y1="9.58732" x2="72.6381" y2="138.587" gradientUnits="userSpaceOnUse">
<stop stop-color="#30C000"/>
<stop offset="0.2328" stop-color="#30C000"/>
<stop offset="1" stop-color="#229305"/>
</linearGradient>
<linearGradient id="paint20_linear" x1="199.593" y1="38.2367" x2="117.848" y2="167.236" gradientUnits="userSpaceOnUse">
<stop stop-color="#30C000"/>
<stop offset="0.2328" stop-color="#30C000"/>
<stop offset="1" stop-color="#229305"/>
</linearGradient>
<linearGradient id="paint21_linear" x1="140.117" y1="0.547285" x2="58.3724" y2="129.546" gradientUnits="userSpaceOnUse">
<stop stop-color="#30C000"/>
<stop offset="0.2328" stop-color="#30C000"/>
<stop offset="1" stop-color="#229305"/>
</linearGradient>
</defs>
</svg>
