<svg width="200" height="200" viewBox="0 0 200 200" fill="none" xmlns="http://www.w3.org/2000/svg">
<rect width="200" height="200" rx="100" fill="#39B54A"/>
<path d="M68.1836 98.8639L89.7745 120.455L132.956 77.2729" stroke="white" stroke-width="8" stroke-linecap="round" stroke-linejoin="round"/>
</svg>
